output_log/dump.vcd
$date
	Sat Jan 11 07:26:17 2025
$end
$version
	QuestaSim Version 2024.3_1
$end
$timescale
	1ns
$end

$scope module apb_tb_top $end
$var parameter 32 ! clk_period $end
$var parameter 32 " rst_period $end
$var reg 1 # pclk $end
$var reg 1 $ preset $end

$scope module i_apb_design $end
$var wire 1 % paddr [31] $end
$var wire 1 & paddr [30] $end
$var wire 1 ' paddr [29] $end
$var wire 1 ( paddr [28] $end
$var wire 1 ) paddr [27] $end
$var wire 1 * paddr [26] $end
$var wire 1 + paddr [25] $end
$var wire 1 , paddr [24] $end
$var wire 1 - paddr [23] $end
$var wire 1 . paddr [22] $end
$var wire 1 / paddr [21] $end
$var wire 1 0 paddr [20] $end
$var wire 1 1 paddr [19] $end
$var wire 1 2 paddr [18] $end
$var wire 1 3 paddr [17] $end
$var wire 1 4 paddr [16] $end
$var wire 1 5 paddr [15] $end
$var wire 1 6 paddr [14] $end
$var wire 1 7 paddr [13] $end
$var wire 1 8 paddr [12] $end
$var wire 1 9 paddr [11] $end
$var wire 1 : paddr [10] $end
$var wire 1 ; paddr [9] $end
$var wire 1 < paddr [8] $end
$var wire 1 = paddr [7] $end
$var wire 1 > paddr [6] $end
$var wire 1 ? paddr [5] $end
$var wire 1 @ paddr [4] $end
$var wire 1 A paddr [3] $end
$var wire 1 B paddr [2] $end
$var wire 1 C paddr [1] $end
$var wire 1 D paddr [0] $end
$var wire 1 E pclk $end
$var wire 1 F penable $end
$var wire 1 G preset $end
$var wire 1 H psel $end
$var wire 1 I pwdata [31] $end
$var wire 1 J pwdata [30] $end
$var wire 1 K pwdata [29] $end
$var wire 1 L pwdata [28] $end
$var wire 1 M pwdata [27] $end
$var wire 1 N pwdata [26] $end
$var wire 1 O pwdata [25] $end
$var wire 1 P pwdata [24] $end
$var wire 1 Q pwdata [23] $end
$var wire 1 R pwdata [22] $end
$var wire 1 S pwdata [21] $end
$var wire 1 T pwdata [20] $end
$var wire 1 U pwdata [19] $end
$var wire 1 V pwdata [18] $end
$var wire 1 W pwdata [17] $end
$var wire 1 X pwdata [16] $end
$var wire 1 Y pwdata [15] $end
$var wire 1 Z pwdata [14] $end
$var wire 1 [ pwdata [13] $end
$var wire 1 \ pwdata [12] $end
$var wire 1 ] pwdata [11] $end
$var wire 1 ^ pwdata [10] $end
$var wire 1 _ pwdata [9] $end
$var wire 1 ` pwdata [8] $end
$var wire 1 a pwdata [7] $end
$var wire 1 b pwdata [6] $end
$var wire 1 c pwdata [5] $end
$var wire 1 d pwdata [4] $end
$var wire 1 e pwdata [3] $end
$var wire 1 f pwdata [2] $end
$var wire 1 g pwdata [1] $end
$var wire 1 h pwdata [0] $end
$var wire 1 i pwrite $end
$var reg 32 j prdata [31:0] $end
$var reg 1 k pready $end
$var reg 1 l pslverr $end
$var integer 32 m state $end
$upscope $end

$scope module intf $end
$var wire 1 n pclk $end
$var wire 1 o preset $end
$var reg 32 p paddr [31:0] $end
$var reg 1 q penable $end
$var reg 32 r prdata [31:0] $end
$var reg 1 s pready $end
$var reg 1 t psel $end
$var reg 1 u pslverr $end
$var reg 32 v pwdata [31:0] $end
$var reg 1 w pwrite $end
$upscope $end

$scope task clk_generate $end
$upscope $end

$scope task reset_generate $end
$upscope $end
$upscope $end

$scope begin questa_uvm_pkg $end
$upscope $end

$scope begin uvm_pkg_sv_unit $end
$upscope $end

$scope begin apb_package $end
$upscope $end

$scope begin uvm_pkg $end
$var parameter 32 x UVM_ABSTRACT $end
$var parameter 32 y UVM_ALL_ON $end
$var parameter 32 z UVM_CHECK_FIELDS $end
$var parameter 32 { UVM_COMPARE $end
$var parameter 32 | UVM_COPY $end
$var parameter 32 } UVM_DEFAULT $end
$var parameter 32 ~ UVM_END_DATA_EXTRA $end
$var parameter 32 !! UVM_END_FUNCS $end
$var parameter 32 "! UVM_FLAGS $end
$var parameter 32 #! UVM_FLAGS_OFF $end
$var parameter 32 $! UVM_FLAGS_ON $end
$var parameter 32 %! UVM_HDL_MAX_WIDTH $end
$var parameter 32 &! UVM_LARGE_STRING $end
$var parameter 32 '! UVM_LINE_WIDTH $end
$var parameter 32 (! UVM_MACRO_EXTRAS $end
$var parameter 32 )! UVM_MACRO_NUMFLAGS $end
$var parameter 32 *! UVM_NOCOMPARE $end
$var parameter 32 +! UVM_NOCOPY $end
$var parameter 32 ,! UVM_NODEFPRINT $end
$var parameter 32 -! UVM_NOPACK $end
$var parameter 32 .! UVM_NOPRINT $end
$var parameter 32 /! UVM_NORECORD $end
$var parameter 32 0! UVM_NUM_LINES $end
$var parameter 32 1! UVM_PACK $end
$var parameter 32 2! UVM_PHYSICAL $end
$var parameter 32 3! UVM_PRINT $end
$var parameter 32 4! UVM_RADIX $end
$var parameter 32 5! UVM_READONLY $end
$var parameter 32 6! UVM_RECORD $end
$var parameter 32 7! UVM_SET $end
$var parameter 32 8! UVM_SETINT $end
$var parameter 32 9! UVM_SETOBJ $end
$var parameter 32 :! UVM_SETSTR $end
$var parameter 32 ;! UVM_SMALL_STRING $end
$var parameter 32 <! UVM_START_FUNCS $end
$var parameter 32 =! UVM_STDOUT $end
$var parameter 32 >! UVM_STREAMBITS $end
$var parameter 32 ?! UVM_STR_CRC_POLYNOMIAL $end
$var parameter 32 @! UVM_UNPACK $end
$var integer 32 A! UVM_UNBOUNDED_CONNECTIONS $end
$var integer 32 B! uvm_global_random_seed $end
$var reg 1 C! uvm_start_uvm_declarations $end

$scope function global_stop_request $end
$upscope $end

$scope function m__uvm_report_dpi $end
$var integer 32 D! line $end
$var integer 32 E! severity $end
$var integer 32 F! verbosity $end
$upscope $end

$scope function m_uvm_string_queue_join $end
$upscope $end

$scope function set_config_int $end
$var reg 4096 G! value [4095:0] $end
$upscope $end

$scope function set_config_object $end
$var reg 1 H! clone $end
$upscope $end

$scope function set_config_string $end
$upscope $end

$scope function set_global_stop_timeout $end
$var time 64 I! timeout $end
$upscope $end

$scope function set_global_timeout $end
$var time 64 J! timeout $end
$var reg 1 K! overridable $end
$upscope $end

$scope function uvm_bits_to_string $end
$var reg 115200 L! str [115199:0] $end
$upscope $end

$scope function uvm_bitstream_to_string $end
$var reg 4096 M! value [4095:0] $end
$var integer 32 N! size $end
$var integer 32 O! radix $end
$upscope $end

$scope function uvm_create_random_seed $end
$var integer 32 P! uvm_create_random_seed $end
$upscope $end

$scope function uvm_dpi_get_next_arg $end
$var integer 32 Q! init $end
$upscope $end

$scope function uvm_dpi_get_next_arg_c $end
$var integer 32 R! init $end
$upscope $end

$scope function uvm_dpi_get_tool_name $end
$upscope $end

$scope function uvm_dpi_get_tool_name_c $end
$upscope $end

$scope function uvm_dpi_get_tool_version $end
$upscope $end

$scope function uvm_dpi_get_tool_version_c $end
$upscope $end

$scope function uvm_dpi_regcomp $end
$upscope $end

$scope function uvm_dpi_regexec $end
$var integer 32 S! uvm_dpi_regexec $end
$upscope $end

$scope function uvm_dpi_regfree $end
$upscope $end

$scope function uvm_dump_re_cache $end
$upscope $end

$scope function uvm_get_array_index_int $end
$var integer 32 T! i $end
$var integer 32 U! uvm_get_array_index_int $end
$var reg 1 V! is_wildcard $end
$upscope $end

$scope function uvm_get_array_index_string $end
$var integer 32 W! i $end
$var reg 1 X! is_wildcard $end
$upscope $end

$scope function uvm_get_report_object $end
$upscope $end

$scope function uvm_glob_to_re $end
$upscope $end

$scope function uvm_has_wildcard $end
$upscope $end

$scope function uvm_hdl_check_path $end
$var integer 32 Y! uvm_hdl_check_path $end
$upscope $end

$scope function uvm_hdl_concat2string $end
$upscope $end

$scope function uvm_hdl_deposit $end
$var reg 1024 Z! value [1023:0] $end
$var integer 32 [! uvm_hdl_deposit $end
$upscope $end

$scope function uvm_hdl_force $end
$var reg 1024 \! value [1023:0] $end
$var integer 32 ]! uvm_hdl_force $end
$upscope $end

$scope function uvm_hdl_read $end
$var reg 1024 ^! value [1023:0] $end
$var integer 32 _! uvm_hdl_read $end
$upscope $end

$scope function uvm_hdl_release $end
$var integer 32 `! uvm_hdl_release $end
$upscope $end

$scope function uvm_hdl_release_and_read $end
$var reg 1024 a! value [1023:0] $end
$var integer 32 b! uvm_hdl_release_and_read $end
$upscope $end

$scope function uvm_instance_scope $end
$var integer 32 c! pos $end
$var integer 8 d! c $end
$upscope $end

$scope function uvm_integral_to_string $end
$var reg 64 e! value [63:0] $end
$var integer 32 f! size $end
$var integer 32 g! radix $end
$upscope $end

$scope function uvm_is_array $end
$var reg 1 h! uvm_is_array $end
$upscope $end

$scope function uvm_is_match $end
$var reg 1 i! uvm_is_match $end
$upscope $end

$scope function uvm_leaf_scope $end
$var integer 32 j! bmatches $end
$var integer 32 k! pos $end
$var integer 8 l! bracket_match $end
$var integer 8 m! scope_separator $end
$upscope $end

$scope function uvm_object_value_str $end
$upscope $end

$scope function uvm_oneway_hash $end
$var integer 32 n! seed $end
$var integer 32 o! uvm_oneway_hash $end
$var reg 32 p! crc1 [31:0] $end
$var reg 8 q! current_byte [7:0] $end
$var reg 1 r! msb $end
$upscope $end

$scope function uvm_process_report_message $end
$upscope $end

$scope function uvm_radix_to_string $end
$var integer 32 s! radix $end
$upscope $end

$scope function uvm_re_match $end
$var integer 32 t! uvm_re_match $end
$upscope $end

$scope function uvm_report $end
$var integer 32 u! line $end
$var integer 32 v! verbosity $end
$var reg 2 w! severity [1:0] $end
$var reg 1 x! report_enabled_checked $end
$upscope $end

$scope function uvm_report_enabled $end
$var integer 32 y! uvm_report_enabled $end
$var integer 32 z! verbosity $end
$var reg 2 {! severity [1:0] $end
$upscope $end

$scope function uvm_report_error $end
$var integer 32 |! line $end
$var integer 32 }! verbosity $end
$var reg 1 ~! report_enabled_checked $end
$upscope $end

$scope function uvm_report_fatal $end
$var integer 32 !" line $end
$var integer 32 "" verbosity $end
$var reg 1 #" report_enabled_checked $end
$upscope $end

$scope function uvm_report_info $end
$var integer 32 $" line $end
$var integer 32 %" verbosity $end
$var reg 1 &" report_enabled_checked $end
$upscope $end

$scope function uvm_report_warning $end
$var integer 32 '" line $end
$var integer 32 (" verbosity $end
$var reg 1 )" report_enabled_checked $end
$upscope $end

$scope function uvm_revision_string $end
$upscope $end

$scope function uvm_split_string $end
$upscope $end

$scope function uvm_string_to_action $end
$upscope $end

$scope function uvm_string_to_bits $end
$var reg 115200 *" uvm_string_to_bits [115199:0] $end
$upscope $end

$scope function uvm_string_to_severity $end
$var reg 2 +" sev [1:0] $end
$var reg 1 ," uvm_string_to_severity $end
$upscope $end

$scope function uvm_vector_to_string $end
$var reg 4096 -" value [4095:0] $end
$var integer 32 ." size $end
$var integer 32 /" radix $end
$upscope $end

$scope task run_test $end
$upscope $end

$scope task uvm_hdl_force_time $end
$var reg 1024 0" value [1023:0] $end
$var time 64 1" force_time $end
$upscope $end

$scope task uvm_wait_for_nba_region $end
$var integer 32 2" nba $end
$var integer 32 3" next_nba $end
$upscope $end
$upscope $end

$scope begin std $end
$upscope $end
$enddefinitions $end
#0
$dumpvars
xh
xg
xf
xe
xd
xc
xb
xa
x`
x_
x^
x]
x\
x[
xZ
xY
xX
xW
xV
xU
xT
xS
xR
xQ
xP
xO
xN
xM
xL
xK
xJ
xI
xD
xC
xB
xA
x@
x?
x>
x=
x<
x;
x:
x9
x8
x7
x6
x5
x4
x3
x2
x1
x0
x/
x.
x-
x,
x+
x*
x)
x(
x'
x&
x%
xi
xF
xH
0E
0G
0o
0n
b110 !
b101 "
0#
0$
b100000000000000 x
b101010101 y
b100000000000000011 z
b100 {
b1 |
b10101010101 }
b100000000000000100 ~
b100000000000001000 !!
b100000000000000001 "!
b0 #!
b101010101 $!
b10000000000 %!
b11100000111111111 &!
b1111000 '!
b100000000000000000 (!
b10001 )!
b1000 *!
b10 +!
b10000000000000000 ,!
b1000000000 -!
b100000 .!
b10000000 /!
b1111000 0!
b100000000 1!
b10000000000000 2!
b10000 3!
b1111000000000000000000000000 4!
b1000000000000000 5!
b1000000 6!
b100000000000000110 7!
b100000000000000110 8!
b100000000000000111 9!
b100000000000001000 :!
b1110111111 ;!
b100000000000000101 <!
b1 =!
b1000000000000 >!
b100110000010001110110110110 ?!
b100000000000000010 @!
b11111111111111111111111111111111 A!
b1100101110011111100110100100110 B!
1C!
b0 D!
b0 E!
b0 F!
bx G!
0H!
bx I!
bx J!
0K!
bx L!
bx M!
b0 N!
b0 O!
b101001010010010010000000101100 P!
b0 Q!
b0 R!
b0 S!
b0 T!
b0 U!
0V!
b0 W!
0X!
b0 Y!
bx Z!
b0 [!
bx \!
b0 ]!
bx 0"
bx 1"
bx ^!
b0 _!
b0 `!
bx a!
b0 b!
b111 c!
b101110 d!
b1 e!
b100000 f!
b10000000000000000000000000 g!
0h!
0i!
b11111111111111111111111111111111 j!
b11110 k!
b0 l!
b101110 m!
b1100101110011111100110100100110 n!
b110011100000100111110101001100 o!
b11011001010011110100110100110010 p!
b1110100 q!
0r!
b0 s!
b0 t!
b0 u!
b0 v!
b0 w!
0x!
b0 y!
b111110100 z!
b0 {!
b0 |!
b0 }!
0~!
b0 !"
b0 ""
0#"
b10001 $"
b1100100 %"
1&"
b0 '"
b0 ("
0)"
bx *"
b0 +"
0,"
bx -"
b0 ."
b0 /"
b100011 2"
b100011 3"
bx j
xk
xl
b0 m
bx p
xq
bx r
xs
xt
xu
bx v
xw
$end
#3
1#
1n
1E
b0 j
0k
0l
0u
0s
b0 r
#5
1$
1o
1G
#6
0#
0n
0E
#9
1#
1n
1E
b100100 3"
b1 m
0t
0q
b100100 2"
0H
0F
b110011100000100111110101001101 P!
b11100 p
b10000001 v
1w
1h
0g
0f
0e
0d
0c
0b
1a
0`
0_
0^
0]
0\
0[
0Z
0Y
0X
0W
0V
0U
0T
0S
0R
0Q
0P
0O
0N
0M
0L
0K
0J
0I
0D
0C
1B
1A
1@
0?
0>
0=
0<
0;
0:
09
08
07
06
05
04
03
02
01
00
0/
0.
0-
0,
0+
0*
0)
0(
0'
0&
0%
1i
#10
0$
0o
0G
#12
0#
0n
0E
#15
1$
1#
1o
1G
1n
1E
1t
1H
#18
0#
0n
0E
#21
1#
1n
1E
b10 m
1q
1F
#24
0#
0n
0E
#27
1#
1n
1E
b11 m
1k
1s
#30
0#
0n
0E
#33
1#
1n
1E
b100101 3"
b1 m
0k
0t
0q
b100101 2"
0s
0H
0F
b1000111000110000011111001101 o!
b1011000110001011110110001011100 p!
b1110001 q!
0r!
b1000111000110000011111001101 P!
b11011101111101011111001100110111 o!
b11101110110110011101100110000111 p!
b1110100 q!
1r!
b11011101111101011111001100110111 P!
0w
0i
#36
0#
0n
0E
#39
1#
1n
1E
1t
1H
#42
0#
0n
0E
#45
1#
1n
1E
b10 m
1q
1F
#48
0#
0n
0E
#51
1#
1n
1E
b10000001 j
b11 m
1k
1s
b10000001 r
#54
0#
0n
0E
#57
1#
1n
1E
b100110 3"
b1 m
0k
0t
0q
b100110 2"
0s
0H
0F
b11011101111101011111001100111000 P!
b110 p
b10010111 v
1w
1g
1f
1d
1C
0A
0@
1i
#60
0#
0n
0E
#63
1#
1n
1E
1t
1H
#66
0#
0n
0E
#69
1#
1n
1E
b10 m
1q
1F
#72
0#
0n
0E
#75
1#
1n
1E
b11 m
1k
1s
#78
0#
0n
0E
#81
1#
1n
1E
b100111 3"
b1 m
0k
0t
0q
b100111 2"
0s
0H
0F
b11011101111101011111001100111010 P!
b1111 p
b10101100 v
0h
0g
1e
0d
1c
1D
1A
#84
0#
0n
0E
#87
1#
1n
1E
1t
1H
#90
0#
0n
0E
#93
1#
1n
1E
b10 m
1q
1F
#96
0#
0n
0E
#99
1#
1n
1E
b11 m
1k
1s
#102
0#
0n
0E
#105
1#
1n
1E
b101000 3"
b1 m
0k
0t
0q
b101000 2"
0s
0H
0F
b11011101111101011111001100111101 P!
b1011 p
b10011111 v
1h
1g
1d
0c
0B
#108
0#
0n
0E
#111
1#
1n
1E
1t
1H
#114
0#
0n
0E
#117
1#
1n
1E
b10 m
1q
1F
#120
0#
0n
0E
#123
1#
1n
1E
b11 m
1k
1s
#126
0#
0n
0E
#129
1#
1n
1E
b101001 3"
b1 m
0k
0t
0q
b101001 2"
0s
0H
0F
b11011101111101011111001101000001 P!
b10111 p
b10010100 v
0h
0g
0e
1B
0A
1@
#132
0#
0n
0E
#135
1#
1n
1E
1t
1H
#138
0#
0n
0E
#141
1#
1n
1E
b10 m
1q
1F
#144
0#
0n
0E
#147
1#
1n
1E
b11 m
1k
1s
#150
0#
0n
0E
#153
1#
1n
1E
b101010 3"
b1 m
0k
0t
0q
b101010 2"
0s
0H
0F
b11011101111101011111001101000110 P!
b110 p
b10000000 v
0f
0d
0D
0@
#156
0#
0n
0E
#159
1#
1n
1E
1t
1H
#162
0#
0n
0E
#165
1#
1n
1E
b10 m
1q
1F
#168
0#
0n
0E
#171
1#
1n
1E
b11 m
1k
1s
#174
0#
0n
0E
#177
1#
1n
1E
b101011 3"
b1 m
0k
0t
0q
b101011 2"
0s
0H
0F
b11011101111101011111001101001100 P!
b11 p
b10011000 v
1e
1d
1D
0B
#180
0#
0n
0E
#183
1#
1n
1E
1t
1H
#186
0#
0n
0E
#189
1#
1n
1E
b10 m
1q
1F
#192
0#
0n
0E
#195
1#
1n
1E
b11 m
1k
1s
#198
0#
0n
0E
#201
1#
1n
1E
b101100 3"
b1 m
0k
0t
0q
b101100 2"
0s
0H
0F
b11011101111101011111001101010011 P!
b11101 p
b1100110 v
1g
1f
0e
0d
1c
1b
0a
0C
1B
1A
1@
#204
0#
0n
0E
#207
1#
1n
1E
1t
1H
#210
0#
0n
0E
#213
1#
1n
1E
b10 m
1q
1F
#216
0#
0n
0E
#219
1#
1n
1E
b11 m
1k
1s
#222
0#
0n
0E
#225
1#
1n
1E
b101101 3"
b1 m
0k
0t
0q
b101101 2"
0s
0H
0F
b11011101111101011111001101011011 P!
b11000 p
b10010011 v
1h
0f
1d
0c
0b
1a
0D
0B
#228
0#
0n
0E
#231
1#
1n
1E
1t
1H
#234
0#
0n
0E
#237
1#
1n
1E
b10 m
1q
1F
#240
0#
0n
0E
#243
1#
1n
1E
b11 m
1k
1s
#246
0#
0n
0E
#249
1#
1n
1E
b101110 3"
b1 m
0k
0t
0q
b101110 2"
0s
0H
0F
b11011101111101011111001101100100 P!
b110 p
0w
1C
1B
0A
0@
0i
#252
0#
0n
0E
#255
1#
1n
1E
1t
1H
#258
0#
0n
0E
#261
1#
1n
1E
b10 m
1q
1F
#264
0#
0n
0E
#267
1#
1n
1E
b10000000 j
b11 m
1k
1s
b10000000 r
#270
0#
0n
0E
#273
1#
1n
1E
b101111 3"
b1 m
0k
0t
0q
b101111 2"
0s
0H
0F
b11011101111101011111001101101110 P!
b1111 p
1D
1A
#276
0#
0n
0E
#279
1#
1n
1E
1t
1H
#282
0#
0n
0E
#285
1#
1n
1E
b10 m
1q
1F
#288
0#
0n
0E
#291
1#
1n
1E
b10101100 j
b11 m
1k
1s
b10101100 r
#294
0#
0n
0E
#297
1#
1n
1E
b110000 3"
b1 m
0k
0t
0q
b110000 2"
0s
0H
0F
b11011101111101011111001101111001 P!
b1011 p
0B
#300
0#
0n
0E
#303
1#
1n
1E
1t
1H
#306
0#
0n
0E
#309
1#
1n
1E
b10 m
1q
1F
#312
0#
0n
0E
#315
1#
1n
1E
b10011111 j
b11 m
1k
1s
b10011111 r
#318
0#
0n
0E
#321
1#
1n
1E
b110001 3"
b1 m
0k
0t
0q
b110001 2"
0s
0H
0F
b11011101111101011111001110000101 P!
b10111 p
1B
0A
1@
#324
0#
0n
0E
#327
1#
1n
1E
1t
1H
#330
0#
0n
0E
#333
1#
1n
1E
b10 m
1q
1F
#336
0#
0n
0E
#339
1#
1n
1E
b10010100 j
b11 m
1k
1s
b10010100 r
#342
0#
0n
0E
#345
1#
1n
1E
b110010 3"
b1 m
0k
0t
0q
b110010 2"
0s
0H
0F
b11011101111101011111001110010010 P!
b110 p
0D
0@
#348
0#
0n
0E
#351
1#
1n
1E
1t
1H
#354
0#
0n
0E
#357
1#
1n
1E
b10 m
1q
1F
#360
0#
0n
0E
#363
1#
1n
1E
b10000000 j
b11 m
1k
1s
b10000000 r
#366
0#
0n
0E
#369
1#
1n
1E
b110011 3"
b1 m
0k
0t
0q
b110011 2"
0s
0H
0F
b11011101111101011111001110100000 P!
b11 p
1D
0B
#372
0#
0n
0E
#375
1#
1n
1E
1t
1H
#378
0#
0n
0E
#381
1#
1n
1E
b10 m
1q
1F
#384
0#
0n
0E
#387
1#
1n
1E
b10011000 j
b11 m
1k
1s
b10011000 r
#390
0#
0n
0E
#393
1#
1n
1E
b110100 3"
b1 m
0k
0t
0q
b110100 2"
0s
0H
0F
b11011101111101011111001110101111 P!
b11101 p
0C
1B
1A
1@
#396
0#
0n
0E
#399
1#
1n
1E
1t
1H
#402
0#
0n
0E
#405
1#
1n
1E
b10 m
1q
1F
#408
0#
0n
0E
#411
1#
1n
1E
b1100110 j
b11 m
1k
1s
b1100110 r
#414
0#
0n
0E
#417
1#
1n
1E
b110101 3"
b1 m
0k
0t
0q
b110101 2"
0s
0H
0F
b10011001011001001101110111011100 o!
b1001001111011110110101011001100 p!
b1110001 q!
0r!
b10011001011001001101110111011100 P!
b1000010100011011101000110000101 o!
b10100000111110110100000100100011 p!
b1110100 q!
1r!
b1000010100011011101000110000101 P!
b11000 p
0D
0B
#420
0#
0n
0E
#423
1#
1n
1E
1t
1H
#426
0#
0n
0E
#429
1#
1n
1E
b10 m
1q
1F
#432
0#
0n
0E
#435
1#
1n
1E
b10010011 j
b11 m
1k
1s
b10010011 r
#438
0#
0n
0E
#441
1#
1n
1E
b110110 3"
b1 m
0k
0t
0q
b110110 2"
0s
0H
0F
b1000010100011011101000110000110 P!
b11100 p
b1111010 v
1w
0h
1e
1c
1b
0a
1B
1i
#444
0#
0n
0E
#447
1#
1n
1E
1t
1H
#450
0#
0n
0E
#453
1#
1n
1E
b10 m
1q
1F
#456
0#
0n
0E
#459
1#
1n
1E
b11 m
1k
1s
#462
0#
0n
0E
#465
1#
1n
1E
b110111 3"
b1 m
0k
0t
0q
b110111 2"
0s
0H
0F
b1000010100011011101000110001000 P!
0w
0i
#468
0#
0n
0E
#471
1#
1n
1E
1t
1H
#474
0#
0n
0E
#477
1#
1n
1E
b10 m
1q
1F
#480
0#
0n
0E
#483
1#
1n
1E
b1111010 j
b11 m
1k
1s
b1111010 r
#486
0#
0n
0E
#489
1#
1n
1E
b111000 3"
b1 m
0k
0t
0q
b111000 2"
0s
0H
0F
b1000010100011011101000110001011 P!
b110 p
b10101101 v
1w
1h
0g
1f
0d
0b
1a
1C
0A
0@
1i
#492
0#
0n
0E
#495
1#
1n
1E
1t
1H
#498
0#
0n
0E
#501
1#
1n
1E
b10 m
1q
1F
#504
0#
0n
0E
#507
1#
1n
1E
b11 m
1k
1s
#510
0#
0n
0E
#513
1#
1n
1E
b111001 3"
b1 m
0k
0t
0q
b111001 2"
0s
0H
0F
b1000010100011011101000110001111 P!
0w
0i
#516
0#
0n
0E
#519
1#
1n
1E
1t
1H
#522
0#
0n
0E
#525
1#
1n
1E
b10 m
1q
1F
#528
0#
0n
0E
#531
1#
1n
1E
b10101101 j
b11 m
1k
1s
b10101101 r
#534
0#
0n
0E
#537
1#
1n
1E
b111010 3"
b1 m
0k
0t
0q
b111010 2"
0s
0H
0F
b1000010100011011101000110010100 P!
b10101 p
b1111111 v
1w
1g
1d
1b
0a
1D
0C
1@
1i
#540
0#
0n
0E
#543
1#
1n
1E
1t
1H
#546
0#
0n
0E
#549
1#
1n
1E
b10 m
1q
1F
#552
0#
0n
0E
#555
1#
1n
1E
b11 m
1k
1s
#558
0#
0n
0E
#561
1#
1n
1E
b111011 3"
b1 m
0k
0t
0q
b111011 2"
0s
0H
0F
b1000010100011011101000110011010 P!
0w
0i
#564
0#
0n
0E
#567
1#
1n
1E
1t
1H
#570
0#
0n
0E
#573
1#
1n
1E
b10 m
1q
1F
#576
0#
0n
0E
#579
1#
1n
1E
b1111111 j
b11 m
1k
1s
b1111111 r
#582
0#
0n
0E
#585
1#
1n
1E
b111100 3"
b1 m
0k
0t
0q
b111100 2"
0s
0H
0F
b1000010100011011101000110100001 P!
b1111 p
b11000001 v
1w
0g
0f
0e
0d
0c
1a
1C
1A
0@
1i
#588
0#
0n
0E
#591
1#
1n
1E
1t
1H
#594
0#
0n
0E
#597
1#
1n
1E
b10 m
1q
1F
#600
0#
0n
0E
#603
1#
1n
1E
b11 m
1k
1s
#606
0#
0n
0E
#609
1#
1n
1E
b111101 3"
b1 m
0k
0t
0q
b111101 2"
0s
0H
0F
b1000010100011011101000110101001 P!
0w
0i
#612
0#
0n
0E
#615
1#
1n
1E
1t
1H
#618
0#
0n
0E
#621
1#
1n
1E
b10 m
1q
1F
#624
0#
0n
0E
#627
1#
1n
1E
b11000001 j
b11 m
1k
1s
b11000001 r
#630
0#
0n
0E
#633
1#
1n
1E
b111110 3"
b1 m
0k
0t
0q
b111110 2"
0s
0H
0F
b1000010100011011101000110110010 P!
b1100 p
b1111111 v
1w
1g
1f
1e
1d
1c
0a
0D
0C
1i
#636
0#
0n
0E
#639
1#
1n
1E
1t
1H
#642
0#
0n
0E
#645
1#
1n
1E
b10 m
1q
1F
#648
0#
0n
0E
#651
1#
1n
1E
b11 m
1k
1s
#654
0#
0n
0E
#657
1#
1n
1E
b111111 3"
b1 m
0k
0t
0q
b111111 2"
0s
0H
0F
b1000010100011011101000110111100 P!
0w
0i
#660
0#
0n
0E
#663
1#
1n
1E
1t
1H
#666
0#
0n
0E
#669
1#
1n
1E
b10 m
1q
1F
#672
0#
0n
0E
#675
1#
1n
1E
b1111111 j
b11 m
1k
1s
b1111111 r
#678
0#
0n
0E
#681
1#
1n
1E
b1000000 3"
b1 m
0k
0t
0q
b1000000 2"
0s
0H
0F
b1000010100011011101000111000111 P!
b1110 p
b10100001 v
1w
0g
0f
0e
0d
0b
1a
1C
1i
#684
0#
0n
0E
#687
1#
1n
1E
1t
1H
#690
0#
0n
0E
#693
1#
1n
1E
b10 m
1q
1F
#696
0#
0n
0E
#699
1#
1n
1E
b11 m
1k
1s
#702
0#
0n
0E
#705
1#
1n
1E
b1000001 3"
b1 m
0k
0t
0q
b1000001 2"
0s
0H
0F
b1000010100011011101000111010011 P!
0w
0i
#708
0#
0n
0E
#711
1#
1n
1E
1t
1H
#714
0#
0n
0E
#717
1#
1n
1E
b10 m
1q
1F
#720
0#
0n
0E
#723
1#
1n
1E
b10100001 j
b11 m
1k
1s
b10100001 r
#726
0#
0n
0E
#729
1#
1n
1E
b1000010 3"
b1 m
0k
0t
0q
b1000010 2"
0s
0H
0F
b1000010100011011101000111100000 P!
b1010 p
b10001010 v
1w
0h
1g
1e
0c
0B
1i
#732
0#
0n
0E
#735
1#
1n
1E
1t
1H
#738
0#
0n
0E
#741
1#
1n
1E
b10 m
1q
1F
#744
0#
0n
0E
#747
1#
1n
1E
b11 m
1k
1s
#750
0#
0n
0E
#753
1#
1n
1E
b1000011 3"
b1 m
0k
0t
0q
b1000011 2"
0s
0H
0F
b1000010100011011101000111101110 P!
0w
0i
#756
0#
0n
0E
#759
1#
1n
1E
1t
1H
#762
0#
0n
0E
#765
1#
1n
1E
b10 m
1q
1F
#768
0#
0n
0E
#771
1#
1n
1E
b10001010 j
b11 m
1k
1s
b10001010 r
#774
0#
0n
0E
#777
1#
1n
1E
b1000100 3"
b1 m
0k
0t
0q
b1000100 2"
0s
0H
0F
b1000010100011011101000111111101 P!
b10110 p
b10010100 v
1w
0g
1f
0e
1d
1B
0A
1@
1i
#780
0#
0n
0E
#783
1#
1n
1E
1t
1H
#786
0#
0n
0E
#789
1#
1n
1E
b10 m
1q
1F
#792
0#
0n
0E
#795
1#
1n
1E
b11 m
1k
1s
#798
0#
0n
0E
#801
1#
1n
1E
b1000101 3"
b1 m
0k
0t
0q
b1000101 2"
0s
0H
0F
b1000010100011011101001000001101 P!
0w
0i
#804
0#
0n
0E
#807
1#
1n
1E
1t
1H
#810
0#
0n
0E
#813
1#
1n
1E
b10 m
1q
1F
#816
0#
0n
0E
#819
1#
1n
1E
b10010100 j
b11 m
1k
1s
b10010100 r
#822
0#
0n
0E
#825
1#
1n
1E
b1000110 3"
b1 m
0k
0t
0q
b1000110 2"
0s
0H
0F
b1000010100011011101001000011110 P!
b10101 p
b10100011 v
1w
1h
1g
0f
0d
1c
1D
0C
1i
#828
0#
0n
0E
#831
1#
1n
1E
1t
1H
#834
0#
0n
0E
#837
1#
1n
1E
b10 m
1q
1F
#840
0#
0n
0E
#843
1#
1n
1E
b11 m
1k
1s
#846
0#
0n
0E
#849
1#
1n
1E
b1000111 3"
b1 m
0k
0t
0q
b1000111 2"
0s
0H
0F
b1000010100011011101001000110000 P!
0w
0i
#852
0#
0n
0E
#855
1#
1n
1E
1t
1H
#858
0#
0n
0E
#861
1#
1n
1E
b10 m
1q
1F
#864
0#
0n
0E
#867
1#
1n
1E
b10100011 j
b11 m
1k
1s
b10100011 r
#870
0#
0n
0E
#873
1#
1n
1E
b1001000 3"
b1 m
0k
0t
0q
b1001000 2"
0s
0H
0F
b1000010100011011101001001000011 P!
b11001 p
b11000101 v
1w
0g
1f
0c
1b
0B
1A
1i
#876
0#
0n
0E
#879
1#
1n
1E
1t
1H
#882
0#
0n
0E
#885
1#
1n
1E
b10 m
1q
1F
#888
0#
0n
0E
#891
1#
1n
1E
b11 m
1k
1s
#894
0#
0n
0E
#897
1#
1n
1E
b1001001 3"
b1 m
0k
0t
0q
b1001001 2"
0s
0H
0F
b11010111000111011101010011000001 o!
b1100100111110001011000110001110 p!
b1110001 q!
0r!
b11010111000111011101010011000001 P!
0w
0i
#900
0#
0n
0E
#903
1#
1n
1E
1t
1H
